Tool Name,Rule Name,Rule Codes

Bandit,Any other function with shell equals true,B604
Bandit,Assert used,B101
Bandit,Cipher modes,B305
Bandit,Ciphers,B304
Bandit,Eval,B307
Bandit,Exec used,B102
Bandit,Execute with run as root equals true,B111
Bandit,Flask debug true,B201
Bandit,Ftplib,B321
Bandit,Hardcoded bind all interfaces,B104
Bandit,Hardcoded password default,B107
Bandit,Hardcoded password funcarg,B106
Bandit,Hardcoded password string,B105
Bandit,Hardcoded sql expressions,B608
Bandit,Hardcoded tmp directory,B108
Bandit,Httpsconnection,B309
Bandit,Import ftplib,B402
Bandit,Import lxml,B410
Bandit,Import pickle,B403
Bandit,Import subprocess,B404
Bandit,Import telnetlib,B401
Bandit,Import xml etree,B405
Bandit,Import xml expat,B407
Bandit,Import xml minidom,B408
Bandit,Import xml pulldom,B409
Bandit,Import xml sax,B406
Bandit,Import xmlrpclib,B411
Bandit,Jinja2 autoescape false,B701
Bandit,Linux commands wildcard injection,B609
Bandit,Mark safe,B308
Bandit,Marshal,B302
Bandit,Md5,B303
Bandit,Mktemp q,B306
Bandit,Paramiko calls,B601
Bandit,Password config option not marked secret,B109
Bandit,Pickle,B301
Bandit,Random,B311
Bandit,Request with no cert validation,B501
Bandit,Set bad file permissions,B103
Bandit,Ssl with bad defaults,B503
Bandit,Ssl with bad version,B502
Bandit,Ssl with no version,B504
Bandit,Start process with a shell,B605
Bandit,Start process with no shell,B606
Bandit,Start process with partial path,B607
Bandit,Subprocess popen with shell equals true,B602
Bandit,Subprocess without shell equals true,B603
Bandit,Telnetlib,B312
Bandit,Try except continue,B112
Bandit,Try except pass,B110
Bandit,Urllib urlopen,B310
Bandit,Use of mako templates,B702
Bandit,Weak cryptographic key,B505
Bandit,Xml bad ElementTree,B314
Bandit,Xml bad cElementTree,B313
Bandit,Xml bad etree,B320
Bandit,Xml bad expatbuilder,B316
Bandit,Xml bad expatreader,B315
Bandit,Xml bad minidom,B318
Bandit,Xml bad pulldom,B319
Bandit,Xml bad sax,B317
Bandit,Yaml load,B506
Brakeman,Check for Rails versions with SafeBuffer bug,SafeBufferManipulation
Brakeman,Check for SQL injection,0,1
Brakeman,Check for mass assignment using without_protection,54
Brakeman,Check for unsafe use of Object#send,23
Brakeman,Check for unscoped ActiveRecord queries,82
Brakeman,Check for versions which do not escape single quotes (CVE-2012-3464),44
Brakeman,Checks for JSON parsing vulnerabilities CVE-2013-0333 and CVE-2013-0269,49,52
Brakeman,Checks for OpenSSL::SSL::VERIFY_NONE,71
Brakeman,Checks for XML denial of service (CVE-2015-3227),88
Brakeman,Checks for XSS in calls to content_tag,53
Brakeman,Checks for XSS in link_to in versions before 3.0,3
Brakeman,Checks for YAML parsing vulnerabilities (CVE-2013-0156),48
Brakeman,Checks for cross-site scripting in render calls,84
Brakeman,Checks for default routes,11,12,77
Brakeman,Checks for digest authentication DoS vulnerability,42
Brakeman,Checks for header DoS (CVE-2013-6414),64
Brakeman,Checks for i18n XSS (CVE-2013-4491),63
Brakeman,Checks for information disclosure displayed via detailed exceptions,61,62
Brakeman,Checks for mail_to XSS vulnerability in certain versions,32
Brakeman,Checks for missing JSON encoding (CVE-2015-3226),JSONEncoding
Brakeman,Checks for nested attributes vulnerability in Rails 2.3.9 and 3.0.0,31
Brakeman,Checks for quote_table_name vulnerability in versions before 2.3.14 and 3.0.10,35
Brakeman,Checks for session key length and http_only settings,26,27,29
Brakeman,Checks for several SQL CVEs,72
Brakeman,Checks for simple_format XSS vulnerability (CVE-2013-6416) in certain versions,67,68
Brakeman,Checks for strong params bypass in CVE-2014-3514,80,81
Brakeman,Checks for symbol denial of service,59
Brakeman,Checks for the use of http_basic_authenticate_with,9
Brakeman,Checks for unescaped output in views,2,5
Brakeman,Checks for unsafe deserialization of objects,25
Brakeman,Checks for unsafe reflection,24
Brakeman,Checks for versions 3.0-3.0.9 which had a vulnerability in filters,34
Brakeman,Checks for versions before 2.3.14 which have a vulnerable escape method,83
Brakeman,Checks for versions with ActiveRecord symbol denial of service vulnerability,55
Brakeman,Checks for versions with JRuby XML parsing backend,57
Brakeman,Checks for versions with file existence disclosure vulnerability,85
Brakeman,Checks for versions with vulnerable sanitize and sanitize_css,56,58
Brakeman,Checks to see if values used for hrefs are sanitized using a :url_safe_method to protect against javascript:/data: XSS,4
Brakeman,Finds calls to render that might allow file access or code execution,15
Brakeman,Finds instances of mass assignment,17,70
Brakeman,Finds instances of possible command injection,14
Brakeman,Finds possible file access using user input,16
Brakeman,Looks for calls to redirect_to with user input as arguments,18
Brakeman,Looks for unsafe uses of select() helper,22
Brakeman,Looks for unsafe uses of select_tag() in some versions of Rails 3.x,43
Brakeman,Report XSS vulnerability in translate helper,28
Brakeman,Report response splitting in Rails 2.3.0 - 2.3.13,37
Brakeman,Report strip_tags vulnerabilities,36,45
Brakeman,Report uses of serialize in versions vulnerable to CVE-2013-0277,50
Brakeman,Report uses of validates_format_of with improper anchors,30
Brakeman,Reports models which do not use attr_restricted and warns on models that use attr_protected,19,51
Brakeman,Reports models which have dangerous attributes defined under the attr_accessible whitelist.,60
Brakeman,Searches for evaluation of user input,13
Brakeman,Searches regexes including user input,76
Brakeman,Verifies that protect_from_forgery is enabled in direct subclasses of ActionController::Base,6,7,33,86
Brakeman,Warn about denial of service with render :text (CVE-2014-0082),75
Brakeman,Warn when skipping CSRF or authentication checks by default,8,10
Codacy ScalaMeta Pro,Avoid Object deserialization of untrusted data,Custom_Scala_ObjDeserialization
Codacy ScalaMeta Pro,Avoid implementing dangerous Regexs,Custom_Scala_ReDosDetector
Codacy ScalaMeta Pro,Avoid using the NullCipher,Custom_Scala_NullCipherDetector
Codacy ScalaMeta Pro,Enforce secure RSA usage,Custom_Scala_RSAPadding
Codacy ScalaMeta Pro,Play untrusted Content-Type header,Custom_Scala_PlayUntrustedContentTypeHeader
Codacy ScalaMeta Pro,Play untrusted http-header: Referrer,Custom_Scala_PlayHttpHeaderReferer
Codacy ScalaMeta Pro,Play untrusted http-header: User-Agent,Custom_Scala_PlayHttpHeaderUserAgent
Codacy ScalaMeta Pro,Play untrusted http-headers,Custom_Scala_PlayRequestHeaders
Codacy ScalaMeta Pro,Play unvalidated redirect,Custom_Scala_PlayUnvalidatedRedirect
Codacy ScalaMeta Pro,Potential filename injection,Custom_Scala_PotentialFileNameInjection
Codacy ScalaMeta Pro,Prevent Path Traversal,Custom_Scala_PathTraversal
Codacy ScalaMeta Pro,Prevent XML XSS,Custom_Scala_XSSescapeXml
Codacy ScalaMeta Pro,Prevent XML parsing attacks,Custom_Scala_XEEVulnerability
Codacy ScalaMeta Pro,Prohibit Blowfish usage with short key,Custom_Scala_InsufficientKeySizeBlowfishDetector
Codacy ScalaMeta Pro,Prohibit RSA usage with short key,Custom_Scala_InsufficientKeySizeRsaDetector
Codacy ScalaMeta Pro,Prohibit SELECT *,Custom_Scala_SQLSelectAll
Codacy ScalaMeta Pro,Prohibit creating cookies without HttpOnly set,Custom_Scala_HttpOnlyCookie
Codacy ScalaMeta Pro,Prohibit creating insecure cookies.,Custom_Scala_InsecureCookie
Codacy ScalaMeta Pro,Prohibit custom message Digest,Custom_Scala_WeakCustomDigest
Codacy ScalaMeta Pro,Prohibit hard coded cryptographic keys,Custom_Scala_HardCodedKey
Codacy ScalaMeta Pro,Prohibit hard coded passwords,Custom_Scala_HardCodedPassword
Codacy ScalaMeta Pro,Prohibit insecure ciphers,Custom_Scala_DESInsecure
Codacy ScalaMeta Pro,Prohibit unencrypted sockets,Custom_Scala_UnencryptedSocket
Codacy ScalaMeta Pro,Prohibit untrusted Http-Request parameter,Custom_Scala_PlayUntrustedHttpRequestParameter
Codacy ScalaMeta Pro,Prohibit untrusted Http-Request parameter,Custom_Scala_SprayUntrustedHttpRequestParameter
Codacy ScalaMeta Pro,Prohibit weak Random,Custom_Scala_PredictableRandom
Codacy ScalaMeta Pro,Prohibit weak message Digest,Custom_Scala_WeakDigest
Codacy ScalaMeta Pro,Spray untrusted Content-Type header,Custom_Scala_SprayUntrustedContentTypeHeader
Codacy ScalaMeta Pro,Spray untrusted http-header: Host,Custom_Scala_SprayHttpHeaderHost
Codacy ScalaMeta Pro,Spray untrusted http-header: Referrer,Custom_Scala_SprayHttpHeaderReferer
Codacy ScalaMeta Pro,Spray untrusted http-header: User-Agent,Custom_Scala_SprayHttpHeaderUserAgent
Codacy ScalaMeta Pro,Spray untrusted http-headers,Custom_Scala_SprayRequestHeaders
Codacy ScalaMeta Pro,Spray unvalidated redirect,Custom_Scala_SprayUnvalidatedRedirect
Codacy ScalaMeta Pro,Untrusted session cookie value,Custom_Scala_SprayUntrustedSessionCookie
ESLint,Access datastore,eslint.rules.scanjs-rules/property/getDataStores
ESLint,Assign to hostname,eslint.rules.scanjs-rules/assign/to/hostname
ESLint,Assign to href,eslint.rules.scanjs-rules/assign/to/href
ESLint,Assign to location,eslint.rules.scanjs-rules/assign/to/location
ESLint,Assign to mozAudioChannel,eslint.rules.scanjs-rules/assign/to/mozAudioChannel
ESLint,Assign to mozAudioChannelType,eslint.rules.scanjs-rules/assign/to/mozAudioChannelType
ESLint,Assign to onmessage,eslint.rules.scanjs-rules/assign/to/onmessage
ESLint,Assign to pathname,eslint.rules.scanjs-rules/assign/to/pathname
ESLint,Assign to protocol,eslint.rules.scanjs-rules/assign/to/protocol
ESLint,Assign to search,eslint.rules.scanjs-rules/assign/to/search
ESLint,Assign to src,eslint.rules.scanjs-rules/assign/to/src
ESLint,Background sensors permission,eslint.rules.scanjs-rules/call/addEventListener/deviceproximity
ESLint,Browser permission,eslint.rules.scanjs-rules/call/setAttribute/mozbrowser
ESLint,Call addEventListener,eslint.rules.scanjs-rules/call/addEventListener
ESLint,Call document.write,eslint.rules.scanjs-rules/call/write
ESLint,Call document.writeln,eslint.rules.scanjs-rules/call/writeln
ESLint,Call eval,eslint.rules.scanjs-rules/call/eval
ESLint,Call execScript,eslint.rules.scanjs-rules/call/execScript
ESLint,Call function,eslint.rules.scanjs-rules/call/Function
ESLint,Call generateCRMFRequest,eslint.rules.scanjs-rules/call/generateCRMFRequest
ESLint,Call setImmediate,eslint.rules.scanjs-rules/call/setImmediate
ESLint,Call setInterval,eslint.rules.scanjs-rules/call/setInterval
ESLint,Call setTimeout,eslint.rules.scanjs-rules/call/setTimeout
ESLint,Cellbroadcast permission,eslint.rules.scanjs-rules/call/addEventListener/cellbroadcastmsgchanged
ESLint,Checks for assignments in condition tests.,eslint.rules.scanjs-rules/accidental/assignment
ESLint,Create contextual fragment,eslint.rules.scanjs-rules/property/createContextualFragment
ESLint,ESLint_no-unsafe-innerhtml_no-unsafe-innerhtml,eslint.rules.no-unsafe-innerhtml/no-unsafe-innerhtml
ESLint,ESLint_scanjs-rules_call_open_remote=true,eslint.rules.scanjs-rules/call/open/remote=true
ESLint,ESLint_scanjs-rules_property_indexedDB,eslint.rules.scanjs-rules/property/indexedDB
ESLint,Idle permission,eslint.rules.scanjs-rules/property/addIdleObserver
ESLint,IndexedDB,eslint.rules.scanjs-rules/identifier/indexedDB
ESLint,Input manage permission,eslint.rules.scanjs-rules/call/hide
ESLint,Local Storage,eslint.rules.scanjs-rules/property/localStorage
ESLint,Local Storage,eslint.rules.scanjs-rules/identifier/localStorage
ESLint,Make InterAppCommunication,eslint.rules.scanjs-rules/call/connect
ESLint,Message handler,eslint.rules.scanjs-rules/call/addEventListener/message
ESLint,Prohibit Buffer with noAssert,eslint.rules.security/detect-buffer-noassert
ESLint,Prohibit CSRF middleware before methodOverride,eslint.rules.security/detect-no-csrf-before-method-override
ESLint,Prohibit RegExp's with expression,eslint.rules.security/detect-non-literal-regexp
ESLint,Prohibit Script URLs,eslint.rules.no-script-url
ESLint,Prohibit Unsafe Regular Expression,eslint.rules.security/detect-unsafe-regex
ESLint,Prohibit calls to fs functions with expression,eslint.rules.security/detect-non-literal-fs-filename
ESLint,Prohibit calls to require with expression,eslint.rules.security/detect-non-literal-require
ESLint,Prohibit crypto.pseudoRandomBytes,eslint.rules.security/detect-pseudoRandomBytes
ESLint,Prohibit eval with expression,eslint.rules.security/detect-eval-with-expression
ESLint,Prohibit eval(),eslint.rules.no-eval
ESLint,Prohibit instances of child_process,eslint.rules.security/detect-child-process
ESLint,Prohibit instances of var[var],eslint.rules.security/detect-object-injection
ESLint,Prohibit no Markup escaping in Mustache,eslint.rules.security/detect-disable-mustache-escape
ESLint,Prohibit potential hot spot string comparisons,eslint.rules.security/detect-possible-timing-attacks
ESLint,Receive InterAppCommunication,eslint.rules.scanjs-rules/call/setMessageHandler/connect
ESLint,Session Storage,eslint.rules.scanjs-rules/identifier/sessionStorage
ESLint,Session storage,eslint.rules.scanjs-rules/property/sessionStorage
ESLint,Time permission,eslint.rules.scanjs-rules/property/mozTime
ESLint,Usage of getDeviceStorage,eslint.rules.scanjs-rules/property/getDeviceStorage
ESLint,Usage of mozContacts,eslint.rules.scanjs-rules/property/mozContacts
ESLint,Usage of mozDownloadManager,eslint.rules.scanjs-rules/property/mozDownloadManager
ESLint,Usage of mozFMRadio,eslint.rules.scanjs-rules/property/mozFMRadio
ESLint,Usage of mozInputMethod,eslint.rules.scanjs-rules/property/mozInputMethod
ESLint,Usage of mozKeyboard,eslint.rules.scanjs-rules/property/mozKeyboard
ESLint,Usage of mozMobileConnection,eslint.rules.scanjs-rules/property/mozMobileConnection
ESLint,Usage of mozMobileConnections,eslint.rules.scanjs-rules/property/mozMobileConnections
ESLint,Usage of mozMobileMessage,eslint.rules.scanjs-rules/property/mozMobileMessage
ESLint,Usage of mozNetworkStats,eslint.rules.scanjs-rules/property/mozNetworkStats
ESLint,Usage of mozNfc,eslint.rules.scanjs-rules/property/mozNfc
ESLint,Usage of mozNotification,eslint.rules.scanjs-rules/property/mozNotification
ESLint,Usage of mozPermissionSettings,eslint.rules.scanjs-rules/property/mozPermissionSettings
ESLint,Usage of mozPhoneNumberService,eslint.rules.scanjs-rules/property/mozPhoneNumberService
ESLint,Usage of mozPower,eslint.rules.scanjs-rules/property/mozPower
ESLint,Usage of mozSettings,eslint.rules.scanjs-rules/property/mozSettings
ESLint,Usage of mozTCPSocket,eslint.rules.scanjs-rules/property/mozTCPSocket
ESLint,Usage of mozTelephony,eslint.rules.scanjs-rules/property/mozTelephony
ESLint,Usage of mozVoicemail,eslint.rules.scanjs-rules/property/mozVoicemail
ESLint,Usage of mozWifiManager,eslint.rules.scanjs-rules/property/mozWifiManager
ESLint,Usage parseFromString,eslint.rules.scanjs-rules/call/parseFromString
ESLint,Usage pf cell broadcasts,eslint.rules.scanjs-rules/property/mozCellBroadcast
ESLint,Webapps manage,eslint.rules.scanjs-rules/property/mgmt
ESLint,alarms permission,eslint.rules.scanjs-rules/property/mozAlarms
ESLint,attention permission,eslint.rules.scanjs-rules/call/open/attention
ESLint,bluetooth permission,eslint.rules.scanjs-rules/property/mozBluetooth
ESLint,camera permission,eslint.rules.scanjs-rules/property/mozCameras
ESLint,desktop-notification permission,eslint.rules.scanjs-rules/new/Notification
ESLint,device-storage: apps permission,eslint.rules.scanjs-rules/call/getDeviceStorage/apps
ESLint,device-storage:crashes permission,eslint.rules.scanjs-rules/call/getDeviceStorage/crashes
ESLint,device-storage:music permission,eslint.rules.scanjs-rules/call/getDeviceStorage/music
ESLint,device-storage:pictures permission,eslint.rules.scanjs-rules/call/getDeviceStorage/pictures
ESLint,device-storage:sdcard permission,eslint.rules.scanjs-rules/call/getDeviceStorage/sdcard
ESLint,device-storage:videos permission,eslint.rules.scanjs-rules/call/getDeviceStorage/videos
ESLint,embed-apps permission,eslint.rules.scanjs-rules/call/setAttribute/mozapp
ESLint,geolocation permission,eslint.rules.scanjs-rules/property/geolocation
ESLint,handle mozActivity,eslint.rules.scanjs-rules/call/mozSetMessageHandler/activity
ESLint,handle system message,eslint.rules.scanjs-rules/call/mozSetMessageHandler
ESLint,mobile network permission,eslint.rules.scanjs-rules/property/lastKnownNetwork
ESLint,mobile network permission,eslint.rules.scanjs-rules/property/lastKnownHomeNetwork
ESLint,mozSystem object,eslint.rules.scanjs-rules/object/mozSystem
ESLint,network-events permission,eslint.rules.scanjs-rules/call/addEventListener/moznetworkdownload
ESLint,network-events permission,eslint.rules.scanjs-rules/call/addEventListener/moznetworkupload
ESLint,new Function(),eslint.rules.scanjs-rules/new/Function
ESLint,new MozActivity(),eslint.rules.scanjs-rules/new/MozActivity
ESLint,speaker-control permission,eslint.rules.scanjs-rules/new/MozSpeakerManager
ESLint,video-capture permission,eslint.rules.scanjs-rules/property/getUserMedia
ESLint,wappush permission,eslint.rules.scanjs-rules/call/mozSetMessageHandler/wappush/received
PHP Code Sniffer,Escape Output,WordPress.XSS.EscapeOutput
PHP Code Sniffer,Nonce Verification,WordPress.CSRF.NonceVerification
PHP Code Sniffer,Prepared S Q L,WordPress.WP.PreparedSQL
PHP Mess Detector,Prohibit eval expression,rulesets/design.xml/EvalExpression
PMD (Legacy),Apex callouts should use encrypted communication channels,apex_security_ApexInsecureEndpoint
PMD (Legacy),Apex classes should declare a sharing model if DML or SOQL/SOSL is used,apex_security_ApexSharingViolations
PMD (Legacy),Apex classes should escape Strings in error messages,apex_security_ApexXSSFromEscapeFalse
PMD (Legacy),Apex classes should escape/sanitize Strings obtained from URL parameters,apex_security_ApexXSSFromURLParam
PMD (Legacy),Apex classes should safely redirect to a known location,apex_security_ApexOpenRedirect
PMD (Legacy),Apex classes should use random IV/key,apex_security_ApexBadCrypto
PMD (Legacy),Avoid calling VF action upon page load,vf_security_VfCsrf
PMD (Legacy),Avoid making DML operations in Apex class constructor/init method,apex_security_ApexCSRF
PMD (Legacy),Avoid unescaped user controlled content in EL,vf_security_VfUnescapeEl
PMD (Legacy),Avoid untrusted/unescaped variables in DML query,apex_security_ApexSOQLInjection
PMD (Legacy),Calling potentially dangerous method,apex_security_ApexDangerousMethods
PMD (Legacy),Suggest named credentials for authentication,apex_security_ApexSuggestUsingNamedCred
PMD (Legacy),Validate CRUD permission before SOQL/DML operation,apex_security_ApexCRUDViolation
PyLint,Prohibit usage of exec,W0122
Rubocop,Avoid using of `Marshal.load` or `Marshal.restore` due to potential security issues. See reference for more information.,Security/MarshalLoad
Rubocop,Prefer usage of `JSON.parse` over `JSON.load` due to potential security issues. See reference for more information.,Security/JSONLoad
Rubocop,Prefer usage of `YAML.safe_load` over `YAML.load` due to potential security issues. See reference for more information.,Security/YAMLLoad
Rubocop,The use of eval represents a serious security risk.,Security/Eval
Sonar C#,"==" should not be used when "Equals" is overridden,S1698
Sonar C#,"Equals(Object)" and "GetHashCode()" should be overridden in pairs,S1206
Sonar C#,"switch/Select" statements should end with "default/Case Else" clauses,S131
Sonar C#,Assignments should not be made from within sub-expressions,S1121
Sonar C#,Console logging should not be used,S2228
Sonar C#,Fields should not have public accessibility,S1104
Sonar C#,IP addresses should not be hardcoded,S1313
Sonar C#,Multiline blocks should be enclosed in curly braces,S2681
Sonar C#,Mutable fields should not be "public static",S2386
Sonar C#,Neither DES (Data Encryption Standard) nor DESede (3DES) should be used,S2278
Sonar C#,Null pointers should not be dereferenced,S2259
Sonar C#,Results of integer division should not be assigned to floating point variables,S2184
Sonar C#,SHA-1 and Message-Digest hash algorithms should not be used,S2070